wave.vcd
$version Generated by VerilatedVcd $end
$timescale 1ps $end

 $scope module top $end
  $var wire 32 3! Addr_out [31:0] $end
  $var wire 32 2! Data_in [31:0] $end
  $var wire 32 7! Data_out [31:0] $end
  $var wire 32 8! Data_out_WB [31:0] $end
  $var wire  1 /! MemRW_EX $end
  $var wire  1 .! MemRW_Mem $end
  $var wire 32 6! PC_out_EX [31:0] $end
  $var wire 32 5! PC_out_ID [31:0] $end
  $var wire 32 4! PC_out_IF [31:0] $end
  $var wire  1 ,! clk $end
  $var wire 32 1! inst_ID [31:0] $end
  $var wire 32 0! inst_IF [31:0] $end
  $var wire  1 -! rst $end
  $scope module core_als $end
   $var wire 32 3! Addr_out [31:0] $end
   $var wire 32 2! Data_in [31:0] $end
   $var wire 32 7! Data_out [31:0] $end
   $var wire 32 8! Data_out_WB [31:0] $end
   $var wire  1 /! MemRW_EX $end
   $var wire  1 .! MemRW_Mem $end
   $var wire 32 6! PC_out_EX [31:0] $end
   $var wire 32 5! PC_out_ID [31:0] $end
   $var wire 32 4! PC_out_IF [31:0] $end
   $var wire 32 % aluresult_ex [31:0] $end
   $var wire  1 ,! clk $end
   $var wire 32 ;! ex_over_data [31:0] $end
   $var wire  1 Z ex_overwrite_ra $end
   $var wire  1 [ ex_overwrite_rb $end
   $var wire  1 X id_ex_hangon_ra $end
   $var wire  1 Y id_ex_hangon_rb $end
   $var wire 32 % id_ex_over_data [31:0] $end
   $var wire  1 # id_ex_stalled $end
   $var wire  1 # if_id_stalled $end
   $var wire 32 1! inst_ID [31:0] $end
   $var wire 32 0! inst_IF [31:0] $end
   $var wire 32 ;! mem_dat_i_w_m [31:0] $end
   $var wire  1 b mem_load_ex $end
   $var wire  1 c mem_load_m $end
   $var wire  1 # pcg_branch $end
   $var wire  1 Q pcg_isjalr $end
   $var wire 32 $ pcg_jalr_reg [31:0] $end
   $var wire 32 R pcg_offset [31:0] $end
   $var wire 32 9! radata [31:0] $end
   $var wire 32 :! rbdata [31:0] $end
   $var wire  5 U reg_anum [4:0] $end
   $var wire  5 U reg_anum_ex [4:0] $end
   $var wire  5 \ reg_anum_id [4:0] $end
   $var wire  5 V reg_bnum [4:0] $end
   $var wire  5 V reg_bnum_ex [4:0] $end
   $var wire  5 ] reg_bnum_id [4:0] $end
   $var wire  1 T reg_wen $end
   $var wire  5 W reg_wnum [4:0] $end
   $var wire  5 ^ reg_wnum_ex [4:0] $end
   $var wire  5 _ reg_wnum_m [4:0] $end
   $var wire  1 ` reg_wr_ex $end
   $var wire  1 a reg_wr_m $end
   $var wire  1 -! rst $end
   $var wire 32 S rwdata [31:0] $end
   $scope module bypasser_0 $end
    $var wire 32 % aluresult_ex [31:0] $end
    $var wire 32 ;! ex_over_data [31:0] $end
    $var wire  1 Z ex_overwrite_ra $end
    $var wire  1 [ ex_overwrite_rb $end
    $var wire  1 X id_ex_hangon_ra $end
    $var wire  1 Y id_ex_hangon_rb $end
    $var wire 32 % id_ex_over_data [31:0] $end
    $var wire 32 ;! mem_dat_i_w_m [31:0] $end
    $var wire  1 b mem_load_ex $end
    $var wire  1 c mem_load_m $end
    $var wire  5 U reg_anum_ex [4:0] $end
    $var wire  5 \ reg_anum_id [4:0] $end
    $var wire  5 V reg_bnum_ex [4:0] $end
    $var wire  5 ] reg_bnum_id [4:0] $end
    $var wire  5 ^ reg_wnum_ex [4:0] $end
    $var wire  5 _ reg_wnum_m [4:0] $end
    $var wire  1 ` reg_wr_ex $end
    $var wire  1 a reg_wr_m $end
   $upscope $end
   $scope module ex_0 $end
    $var wire  3 g ALUctr [2:0] $end
    $var wire  1 h ALUext $end
    $var wire  1 /! MemRW_EX $end
    $var wire 32 6! PC_out_EX [31:0] $end
    $var wire 32 % aluresult [31:0] $end
    $var wire 32 % aluresult_ex [31:0] $end
    $var wire  1 ,! clk $end
    $var wire 32 ( dataa [31:0] $end
    $var wire 32 ) datab [31:0] $end
    $var wire 32 ;! ex_over_data [31:0] $end
    $var wire  1 Z ex_overwrite_ra $end
    $var wire  1 [ ex_overwrite_rb $end
    $var wire 32 f hangon_data [31:0] $end
    $var wire  1 d hangon_ra $end
    $var wire  1 e hangon_rb $end
    $var wire  1 X id_ex_hangon_ra $end
    $var wire  1 Y id_ex_hangon_rb $end
    $var wire 32 % id_ex_over_data [31:0] $end
    $var wire  1 ' less $end
    $var wire  1 b mem_load_ex $end
    $var wire  1 # pcg_branch $end
    $var wire  1 Q pcg_isjalr $end
    $var wire 32 $ pcg_jalr_reg [31:0] $end
    $var wire 32 R pcg_offset [31:0] $end
    $var wire 32 9! radata [31:0] $end
    $var wire 32 $ radata_wrapper [31:0] $end
    $var wire 32 :! rbdata [31:0] $end
    $var wire 32 <! rbdata_wrapper [31:0] $end
    $var wire  5 U reg_anum [4:0] $end
    $var wire  5 V reg_bnum [4:0] $end
    $var wire  5 ^ reg_wnum_ex [4:0] $end
    $var wire  1 ` reg_wr_ex $end
    $var wire  1 -! rst $end
    $var wire  1 & zero $end
    $scope module alu_0 $end
     $var wire  3 g ALUctr [2:0] $end
     $var wire  1 h ALUext $end
     $var wire 32 % aluresult [31:0] $end
     $var wire  1 , carry $end
     $var wire 32 ( dataa [31:0] $end
     $var wire 32 ) datab [31:0] $end
     $var wire  1 ' less $end
     $var wire  1 - of $end
     $var wire  5 . offset [4:0] $end
     $var wire 32 * reverse [31:0] $end
     $var wire 32 + temp [31:0] $end
     $var wire  1 & zero $end
    $upscope $end
    $scope module if_ex_m_ex $end
     $var wire 32 % aluresult [31:0] $end
     $var wire  1 b mem_load $end
     $var wire  3 !! mem_opt [2:0] $end
     $var wire  1 "! mem_signed $end
     $var wire  1 ~ mem_wr $end
     $var wire 32 :! rbdata [31:0] $end
     $var wire  5 ^ reg_wnum [4:0] $end
     $var wire  1 ` reg_wr $end
    $upscope $end
    $scope module if_id_ex_ex $end
     $var wire  3 g ALUctr [2:0] $end
     $var wire  1 h ALUext $end
     $var wire  2 #! alu_sela [1:0] $end
     $var wire  2 $! alu_selb [1:0] $end
     $var wire  3 &! branch [2:0] $end
     $var wire 32 R imm [31:0] $end
     $var wire  1 b mem_load $end
     $var wire  3 !! mem_opt [2:0] $end
     $var wire  1 "! mem_signed $end
     $var wire  1 ~ mem_wr $end
     $var wire 32 %! pc [31:0] $end
     $var wire  5 U reg_anum [4:0] $end
     $var wire  5 V reg_bnum [4:0] $end
     $var wire  5 ^ reg_wnum [4:0] $end
     $var wire  1 ` reg_wr $end
    $upscope $end
   $upscope $end
   $scope module ex_m_0 $end
    $var wire  1 ,! clk $end
    $var wire  1 -! rst $end
    $scope module if_ex_m_ex $end
     $var wire 32 % aluresult [31:0] $end
     $var wire  1 b mem_load $end
     $var wire  3 !! mem_opt [2:0] $end
     $var wire  1 "! mem_signed $end
     $var wire  1 ~ mem_wr $end
     $var wire 32 :! rbdata [31:0] $end
     $var wire  5 ^ reg_wnum [4:0] $end
     $var wire  1 ` reg_wr $end
    $upscope $end
    $scope module if_ex_m_m $end
     $var wire 32 f aluresult [31:0] $end
     $var wire  1 c mem_load $end
     $var wire  3 y mem_opt [2:0] $end
     $var wire  1 { mem_signed $end
     $var wire  1 '! mem_wr $end
     $var wire 32 | rbdata [31:0] $end
     $var wire  5 _ reg_wnum [4:0] $end
     $var wire  1 a reg_wr $end
    $upscope $end
   $upscope $end
   $scope module gprfile_0 $end
    $var wire  1 ,! clk $end
    $var wire 32 1 gprs[0] [31:0] $end
    $var wire 32 ; gprs[10] [31:0] $end
    $var wire 32 < gprs[11] [31:0] $end
    $var wire 32 = gprs[12] [31:0] $end
    $var wire 32 > gprs[13] [31:0] $end
    $var wire 32 ? gprs[14] [31:0] $end
    $var wire 32 @ gprs[15] [31:0] $end
    $var wire 32 A gprs[16] [31:0] $end
    $var wire 32 B gprs[17] [31:0] $end
    $var wire 32 C gprs[18] [31:0] $end
    $var wire 32 D gprs[19] [31:0] $end
    $var wire 32 2 gprs[1] [31:0] $end
    $var wire 32 E gprs[20] [31:0] $end
    $var wire 32 F gprs[21] [31:0] $end
    $var wire 32 G gprs[22] [31:0] $end
    $var wire 32 H gprs[23] [31:0] $end
    $var wire 32 I gprs[24] [31:0] $end
    $var wire 32 J gprs[25] [31:0] $end
    $var wire 32 K gprs[26] [31:0] $end
    $var wire 32 L gprs[27] [31:0] $end
    $var wire 32 M gprs[28] [31:0] $end
    $var wire 32 N gprs[29] [31:0] $end
    $var wire 32 3 gprs[2] [31:0] $end
    $var wire 32 O gprs[30] [31:0] $end
    $var wire 32 P gprs[31] [31:0] $end
    $var wire 32 4 gprs[3] [31:0] $end
    $var wire 32 5 gprs[4] [31:0] $end
    $var wire 32 6 gprs[5] [31:0] $end
    $var wire 32 7 gprs[6] [31:0] $end
    $var wire 32 8 gprs[7] [31:0] $end
    $var wire 32 9 gprs[8] [31:0] $end
    $var wire 32 : gprs[9] [31:0] $end
    $var wire 32 0 i [31:0] $end
    $var wire 32 9! radata [31:0] $end
    $var wire 32 :! rbdata [31:0] $end
    $var wire  5 U reg_anum [4:0] $end
    $var wire  5 V reg_bnum [4:0] $end
    $var wire  1 T reg_wen $end
    $var wire  5 W reg_wnum [4:0] $end
    $var wire  1 -! rst $end
    $var wire 32 S rwdata [31:0] $end
   $upscope $end
   $scope module id_0 $end
    $var wire  3 l ALUctr [2:0] $end
    $var wire  1 q ALUext $end
    $var wire 32 5! PC_out_ID [31:0] $end
    $var wire  2 o alu_sela [1:0] $end
    $var wire  2 p alu_selb [1:0] $end
    $var wire  3 n branch [2:0] $end
    $var wire 32 j imm [31:0] $end
    $var wire 32 i inst [31:0] $end
    $var wire 32 1! inst_ID [31:0] $end
    $var wire  1 t mem_load $end
    $var wire  3 m mem_opt [2:0] $end
    $var wire  1 u mem_signed $end
    $var wire  1 r mem_wr $end
    $var wire  5 \ reg_anum [4:0] $end
    $var wire  5 \ reg_anum_id [4:0] $end
    $var wire  5 ] reg_bnum [4:0] $end
    $var wire  5 ] reg_bnum_id [4:0] $end
    $var wire  5 k reg_wnum [4:0] $end
    $var wire  1 s reg_wr $end
    $scope module decode_0 $end
     $var wire  3 l ALUctr [2:0] $end
     $var wire  1 q ALUext $end
     $var wire  2 o alu_sela [1:0] $end
     $var wire  2 p alu_selb [1:0] $end
     $var wire  3 n branch [2:0] $end
     $var wire 32 j imm [31:0] $end
     $var wire 32 i inst [31:0] $end
     $var wire  1 t mem_load $end
     $var wire  3 m mem_opt [2:0] $end
     $var wire  1 u mem_signed $end
     $var wire  1 r mem_wr $end
     $var wire  7 v op [6:0] $end
     $var wire  5 \ reg_anum [4:0] $end
     $var wire  5 ] reg_bnum [4:0] $end
     $var wire  5 k reg_wnum [4:0] $end
     $var wire  1 s reg_wr $end
    $upscope $end
    $scope module if_id_ex_id $end
     $var wire  3 l ALUctr [2:0] $end
     $var wire  1 q ALUext $end
     $var wire  2 o alu_sela [1:0] $end
     $var wire  2 p alu_selb [1:0] $end
     $var wire  3 n branch [2:0] $end
     $var wire 32 j imm [31:0] $end
     $var wire  1 t mem_load $end
     $var wire  3 m mem_opt [2:0] $end
     $var wire  1 u mem_signed $end
     $var wire  1 r mem_wr $end
     $var wire 32 } pc [31:0] $end
     $var wire  5 \ reg_anum [4:0] $end
     $var wire  5 ] reg_bnum [4:0] $end
     $var wire  5 k reg_wnum [4:0] $end
     $var wire  1 s reg_wr $end
    $upscope $end
    $scope module if_if_id_id $end
     $var wire 32 i inst [31:0] $end
     $var wire 32 } pc [31:0] $end
    $upscope $end
   $upscope $end
   $scope module id_ex_0 $end
    $var wire  1 ,! clk $end
    $var wire  1 # id_ex_stalled $end
    $var wire  1 -! rst $end
    $scope module if_id_ex_ex $end
     $var wire  3 g ALUctr [2:0] $end
     $var wire  1 h ALUext $end
     $var wire  2 #! alu_sela [1:0] $end
     $var wire  2 $! alu_selb [1:0] $end
     $var wire  3 &! branch [2:0] $end
     $var wire 32 R imm [31:0] $end
     $var wire  1 b mem_load $end
     $var wire  3 !! mem_opt [2:0] $end
     $var wire  1 "! mem_signed $end
     $var wire  1 ~ mem_wr $end
     $var wire 32 %! pc [31:0] $end
     $var wire  5 U reg_anum [4:0] $end
     $var wire  5 V reg_bnum [4:0] $end
     $var wire  5 ^ reg_wnum [4:0] $end
     $var wire  1 ` reg_wr $end
    $upscope $end
    $scope module if_id_ex_id $end
     $var wire  3 l ALUctr [2:0] $end
     $var wire  1 q ALUext $end
     $var wire  2 o alu_sela [1:0] $end
     $var wire  2 p alu_selb [1:0] $end
     $var wire  3 n branch [2:0] $end
     $var wire 32 j imm [31:0] $end
     $var wire  1 t mem_load $end
     $var wire  3 m mem_opt [2:0] $end
     $var wire  1 u mem_signed $end
     $var wire  1 r mem_wr $end
     $var wire 32 } pc [31:0] $end
     $var wire  5 \ reg_anum [4:0] $end
     $var wire  5 ] reg_bnum [4:0] $end
     $var wire  5 k reg_wnum [4:0] $end
     $var wire  1 s reg_wr $end
    $upscope $end
   $upscope $end
   $scope module if_ex_m_ex $end
    $var wire 32 % aluresult [31:0] $end
    $var wire  1 b mem_load $end
    $var wire  3 !! mem_opt [2:0] $end
    $var wire  1 "! mem_signed $end
    $var wire  1 ~ mem_wr $end
    $var wire 32 :! rbdata [31:0] $end
    $var wire  5 ^ reg_wnum [4:0] $end
    $var wire  1 ` reg_wr $end
   $upscope $end
   $scope module if_ex_m_m $end
    $var wire 32 f aluresult [31:0] $end
    $var wire  1 c mem_load $end
    $var wire  3 y mem_opt [2:0] $end
    $var wire  1 { mem_signed $end
    $var wire  1 '! mem_wr $end
    $var wire 32 | rbdata [31:0] $end
    $var wire  5 _ reg_wnum [4:0] $end
    $var wire  1 a reg_wr $end
   $upscope $end
   $scope module if_id_0 $end
    $var wire  1 ,! clk $end
    $var wire  1 # if_id_stalled $end
    $var wire  1 -! rst $end
    $scope module if_if_id_id $end
     $var wire 32 i inst [31:0] $end
     $var wire 32 } pc [31:0] $end
    $upscope $end
    $scope module if_if_id_if $end
     $var wire 32 0! inst [31:0] $end
     $var wire 32 x pc [31:0] $end
    $upscope $end
   $upscope $end
   $scope module if_id_ex_ex $end
    $var wire  3 g ALUctr [2:0] $end
    $var wire  1 h ALUext $end
    $var wire  2 #! alu_sela [1:0] $end
    $var wire  2 $! alu_selb [1:0] $end
    $var wire  3 &! branch [2:0] $end
    $var wire 32 R imm [31:0] $end
    $var wire  1 b mem_load $end
    $var wire  3 !! mem_opt [2:0] $end
    $var wire  1 "! mem_signed $end
    $var wire  1 ~ mem_wr $end
    $var wire 32 %! pc [31:0] $end
    $var wire  5 U reg_anum [4:0] $end
    $var wire  5 V reg_bnum [4:0] $end
    $var wire  5 ^ reg_wnum [4:0] $end
    $var wire  1 ` reg_wr $end
   $upscope $end
   $scope module if_id_ex_id $end
    $var wire  3 l ALUctr [2:0] $end
    $var wire  1 q ALUext $end
    $var wire  2 o alu_sela [1:0] $end
    $var wire  2 p alu_selb [1:0] $end
    $var wire  3 n branch [2:0] $end
    $var wire 32 j imm [31:0] $end
    $var wire  1 t mem_load $end
    $var wire  3 m mem_opt [2:0] $end
    $var wire  1 u mem_signed $end
    $var wire  1 r mem_wr $end
    $var wire 32 } pc [31:0] $end
    $var wire  5 \ reg_anum [4:0] $end
    $var wire  5 ] reg_bnum [4:0] $end
    $var wire  5 k reg_wnum [4:0] $end
    $var wire  1 s reg_wr $end
   $upscope $end
   $scope module if_if_id_id $end
    $var wire 32 i inst [31:0] $end
    $var wire 32 } pc [31:0] $end
   $upscope $end
   $scope module if_if_id_if $end
    $var wire 32 0! inst [31:0] $end
    $var wire 32 x pc [31:0] $end
   $upscope $end
   $scope module if_m_wb_m $end
    $var wire 32 7! Data_out [31:0] $end
    $var wire 32 f aluresult [31:0] $end
    $var wire 32 ;! mem_dat_i_w [31:0] $end
    $var wire  1 c mem_load $end
    $var wire  5 _ reg_wnum [4:0] $end
    $var wire  1 a reg_wr $end
   $upscope $end
   $scope module if_m_wb_wb $end
    $var wire 32 *! Data_out [31:0] $end
    $var wire 32 (! aluresult [31:0] $end
    $var wire 32 )! mem_dat_i_w [31:0] $end
    $var wire  1 +! mem_load $end
    $var wire  5 W reg_wnum [4:0] $end
    $var wire  1 T reg_wr $end
   $upscope $end
   $scope module ifx_0 $end
    $var wire 32 4! PC_out_IF [31:0] $end
    $var wire  1 ,! clk $end
    $var wire 32 0! inst_IF [31:0] $end
    $var wire 32 x pc_now [31:0] $end
    $var wire 32 / pc_out [31:0] $end
    $var wire  1 w pc_reg_en $end
    $var wire  1 # pcg_branch $end
    $var wire  1 Q pcg_isjalr $end
    $var wire 32 $ pcg_jalr_reg [31:0] $end
    $var wire 32 R pcg_offset [31:0] $end
    $var wire  1 -! rst $end
    $scope module if_if_id_if $end
     $var wire 32 0! inst [31:0] $end
     $var wire 32 x pc [31:0] $end
    $upscope $end
    $scope module pc_reg_0 $end
     $var wire  1 ,! clk $end
     $var wire 32 x pc [31:0] $end
     $var wire 32 >! pc_addition [31:0] $end
     $var wire 32 =! pc_base [31:0] $end
     $var wire 32 x pc_now [31:0] $end
     $var wire 32 / pc_out [31:0] $end
     $var wire  1 w pc_reg_en $end
     $var wire  1 # pcg_branch $end
     $var wire  1 Q pcg_isjalr $end
     $var wire 32 $ pcg_jalr_reg [31:0] $end
     $var wire 32 R pcg_offset [31:0] $end
     $var wire  1 -! rst $end
    $upscope $end
   $upscope $end
   $scope module m_0 $end
    $var wire 32 3! Addr_out [31:0] $end
    $var wire 32 2! Data_in [31:0] $end
    $var wire 32 7! Data_out [31:0] $end
    $var wire  1 .! MemRW_Mem $end
    $var wire 32 ;! mem_dat_i_w_m [31:0] $end
    $var wire  1 c mem_load_m $end
    $var wire  5 _ reg_wnum_m [4:0] $end
    $var wire  1 a reg_wr_m $end
    $scope module if_ex_m_m $end
     $var wire 32 f aluresult [31:0] $end
     $var wire  1 c mem_load $end
     $var wire  3 y mem_opt [2:0] $end
     $var wire  1 { mem_signed $end
     $var wire  1 '! mem_wr $end
     $var wire 32 | rbdata [31:0] $end
     $var wire  5 _ reg_wnum [4:0] $end
     $var wire  1 a reg_wr $end
    $upscope $end
    $scope module if_m_wb_m $end
     $var wire 32 7! Data_out [31:0] $end
     $var wire 32 f aluresult [31:0] $end
     $var wire 32 ;! mem_dat_i_w [31:0] $end
     $var wire  1 c mem_load $end
     $var wire  5 _ reg_wnum [4:0] $end
     $var wire  1 a reg_wr $end
    $upscope $end
    $scope module load_sext_0 $end
     $var wire 32 2! current [31:0] $end
     $var wire  2 z low_addr [1:0] $end
     $var wire  3 y mem_mode [2:0] $end
     $var wire  1 { mem_signed $end
     $var wire 32 ;! target [31:0] $end
    $upscope $end
    $scope module save_sext_0 $end
     $var wire 32 | current [31:0] $end
     $var wire  2 z low_addr [1:0] $end
     $var wire  3 y mem_mode [2:0] $end
     $var wire 32 7! target [31:0] $end
    $upscope $end
   $upscope $end
   $scope module m_wb_0 $end
    $var wire  1 ,! clk $end
    $var wire  1 -! rst $end
    $scope module if_m_wb_m $end
     $var wire 32 7! Data_out [31:0] $end
     $var wire 32 f aluresult [31:0] $end
     $var wire 32 ;! mem_dat_i_w [31:0] $end
     $var wire  1 c mem_load $end
     $var wire  5 _ reg_wnum [4:0] $end
     $var wire  1 a reg_wr $end
    $upscope $end
    $scope module if_m_wb_wb $end
     $var wire 32 *! Data_out [31:0] $end
     $var wire 32 (! aluresult [31:0] $end
     $var wire 32 )! mem_dat_i_w [31:0] $end
     $var wire  1 +! mem_load $end
     $var wire  5 W reg_wnum [4:0] $end
     $var wire  1 T reg_wr $end
    $upscope $end
   $upscope $end
   $scope module staller_0 $end
    $var wire  1 # id_ex_stalled $end
    $var wire  1 # if_id_stalled $end
    $var wire  1 # pcg_branch $end
    $var wire  1 Q pcg_isjalr $end
   $upscope $end
   $scope module wb_0 $end
    $var wire 32 8! Data_out_WB [31:0] $end
    $var wire  1 T reg_wen $end
    $var wire  5 W reg_wnum [4:0] $end
    $var wire 32 S rwdata [31:0] $end
    $scope module if_m_wb_wb $end
     $var wire 32 *! Data_out [31:0] $end
     $var wire 32 (! aluresult [31:0] $end
     $var wire 32 )! mem_dat_i_w [31:0] $end
     $var wire  1 +! mem_load $end
     $var wire  5 W reg_wnum [4:0] $end
     $var wire  1 T reg_wr $end
    $upscope $end
   $upscope $end
  $upscope $end
 $upscope $end
$enddefinitions $end


#0
0#
b00000000000000000000000000000000 $
b00000000000000000000000000000000 %
1&
0'
b00000000000000000000000000000000 (
b00000000000000000000000000000000 )
b00000000000000000000000000000000 *
b00000000000000000000000000000000 +
0,
0-
b00000 .
b00000000000000000000000000000100 /
b00000000000000000000000000000000 0
b00000000000000000000000000000000 1
b00000000000000000000000000000000 2
b00000000000000000000000000000000 3
b00000000000000000000000000000000 4
b00000000000000000000000000000000 5
b00000000000000000000000000000000 6
b00000000000000000000000000000000 7
b00000000000000000000000000000000 8
b00000000000000000000000000000000 9
b00000000000000000000000000000000 :
b00000000000000000000000000000000 ;
b00000000000000000000000000000000 <
b00000000000000000000000000000000 =
b00000000000000000000000000000000 >
b00000000000000000000000000000000 ?
b00000000000000000000000000000000 @
b00000000000000000000000000000000 A
b00000000000000000000000000000000 B
b00000000000000000000000000000000 C
b00000000000000000000000000000000 D
b00000000000000000000000000000000 E
b00000000000000000000000000000000 F
b00000000000000000000000000000000 G
b00000000000000000000000000000000 H
b00000000000000000000000000000000 I
b00000000000000000000000000000000 J
b00000000000000000000000000000000 K
b00000000000000000000000000000000 L
b00000000000000000000000000000000 M
b00000000000000000000000000000000 N
b00000000000000000000000000000000 O
b00000000000000000000000000000000 P
0Q
b00000000000000000000000000000000 R
b00000000000000000000000000000000 S
0T
b00000 U
b00000 V
b00000 W
0X
0Y
0Z
0[
b00000 \
b00000 ]
b00000 ^
b00000 _
0`
0a
0b
0c
0d
0e
b00000000000000000000000000000000 f
b000 g
0h
b00000000000000000000000000000000 i
b00000000000000000000000000000000 j
b00000 k
b000 l
b000 m
b000 n
b00 o
b00 p
0q
0r
0s
0t
0u
b0000000 v
0w
b00000000000000000000000000000000 x
b000 y
b00 z
0{
b00000000000000000000000000000000 |
b00000000000000000000000000000000 }
0~
b000 !!
0"!
b00 #!
b00 $!
b00000000000000000000000000000000 %!
b000 &!
0'!
b00000000000000000000000000000000 (!
b00000000000000000000000000000000 )!
b00000000000000000000000000000000 *!
0+!
1,!
0-!
0.!
0/!
b00000000000000000000000000000000 0!
b00000000000000000000000000000000 1!
b00000000000000000000000000000000 2!
b00000000000000000000000000000000 3!
b00000000000000000000000000000000 4!
b00000000000000000000000000000000 5!
b00000000000000000000000000000000 6!
b00000000000000000000000000000000 7!
b00000000000000000000000000000000 8!
b00000000000000000000000000000000 9!
b00000000000000000000000000000000 :!
b00000000000000000000000000000000 ;!
b00000000000000000000000000000000 <!
b00000000000000000000000000000000 =!
b00000000000000000000000000000100 >!
#1
b00000000000000000000000000100000 0
1-!
#2
#3
#4
#5
#6
0,!
0-!
#7
#8
#9
#10
#11
#12
1w
1,!
b00000000000000000111001010010011 0!
b00000000000000000000000000000100 4!
#13
#14
#15
#16
#17
#18
0,!
#19
#20
#21
#22
#23
#24
b00000000000000000000000000001000 /
b00000000000000000111001010010011 i
b00101 k
b111 l
b01 p
1s
b0010011 v
b00000000000000000000000000000100 x
1,!
b00000000000000000111001100010011 0!
b00000000000000000111001010010011 1!
b00000000000000000000000000001000 4!
b00000000000000000000000000000100 =!
#25
#26
#27
#28
#29
#30
0,!
#31
#32
#33
#34
#35
#36
b00000000000000000000000000001100 /
b00101 ^
1`
b111 g
b00000000000000000111001100010011 i
b00110 k
b00000000000000000000000000001000 x
b00000000000000000000000000000100 }
b01 $!
1,!
b10001000100010001000000100110111 0!
b00000000000000000111001100010011 1!
b00000000000000000000000000001100 4!
b00000000000000000000000000000100 5!
b00000000000000000000000000001000 =!
#37
#38
#39
#40
#41
#42
0,!
#43
#44
#45
#46
#47
#48
b00000000000000000000000000010000 /
b10001 \
b01000 ]
b00110 ^
b00101 _
1a
b10001000100010001000000100110111 i
b10001000100010001000000000000000 j
b00010 k
b000 l
b10 o
b0110111 v
b00000000000000000000000000001100 x
b00000000000000000000000000001000 }
b00000000000000000000000000000100 %!
1,!
b00000000100000110010000110000011 0!
b10001000100010001000000100110111 1!
b00000000000000000000000000010000 4!
b00000000000000000000000000001000 5!
b00000000000000000000000000000100 6!
b00000000000000000000000000001100 =!
#49
#50
#51
#52
#53
#54
0,!
#55
#56
#57
#58
#59
#60
b10001000100010001000000000000000 %
0&
b10001000100010001000000000000000 )
b00000000000000000000000000010100 /
b10001000100010001000000000000000 R
1T
b10001 U
b01000 V
b00101 W
b00110 \
b00010 ^
b00110 _
b000 g
b00000000100000110010000110000011 i
b00000000000000000000000000001000 j
b00011 k
b111 m
b00 o
1t
b0000011 v
b00000000000000000000000000010000 x
b00000000000000000000000000001100 }
b10 #!
b00000000000000000000000000001000 %!
1,!
b00000000001100101010001000100011 0!
b00000000100000110010000110000011 1!
b00000000000000000000000000010100 4!
b00000000000000000000000000001100 5!
b00000000000000000000000000001000 6!
b00000000000000000000000000010000 =!
#61
#62
#63
#64
#65
#66
0,!
#67
#68
#69
#70
#71
#72
b00000000000000000000000000001000 %
b00000000000000000000000000001000 )
b01000 .
b00000000000000000000000000011000 /
b00000000000000000000000000001000 R
b00110 U
b00110 W
b00101 \
b00011 ]
b00011 ^
b00010 _
1b
b10001000100010001000000000000000 f
b00000000001100101010001000100011 i
b00000000000000000000000000000100 j
b00100 k
1r
0s
0t
b0100011 v
b00000000000000000000000000010100 x
b00000000000000000000000000010000 }
b111 !!
b00 #!
b00000000000000000000000000001100 %!
1,!
b00000000010000000010000010000011 0!
b00000000001100101010001000100011 1!
b00000000000000000000000000011000 4!
b00000000000000000000000000010000 5!
b00000000000000000000000000001100 6!
b00000000000000000000000000010100 =!
#73
#74
#75
#76
#77
#78
0,!
#79
#80
#81
#82
#83
#84
b00000000000000000000000000000100 %
b00000000000000000000000000000100 )
b00100 .
b00000000000000000000000000011100 /
b00000000000000000000000000000100 R
b10001000100010001000000000000000 S
b00101 U
b00011 V
b00010 W
1[
b00000 \
b00100 ]
b00100 ^
b00011 _
0`
0b
1c
b00000000000000000000000000001000 f
b00000000010000000010000010000011 i
b00001 k
0r
1s
1t
b0000011 v
b00000000000000000000000000011000 x
b111 y
b00000000000000000000000000010100 }
1~
b00000000000000000000000000010000 %!
b10001000100010001000000000000000 (!
1,!
1/!
b00000001110000000010001110000011 0!
b00000000010000000010000010000011 1!
b00000000000000000000000000001000 3!
b00000000000000000000000000011100 4!
b00000000000000000000000000010100 5!
b00000000000000000000000000010000 6!
b10001000100010001000000000000000 8!
b00000000000000000000000000011000 =!
#85
#86
#87
#88
#89
#90
b10001000100010001000000000000000 3
0,!
b10000000000000000000000000000000 2!
#91
b10000000000000000000000000000000 ;!
b10000000000000000000000000000000 <!
#92
#93
#94
#95
#96
b00000000000000000000000000100000 /
b10000000000000000000000000000000 S
b00000 U
b00100 V
b00011 W
0[
b11100 ]
b00001 ^
b00100 _
1`
0a
1b
0c
b00000000000000000000000000000100 f
b00000001110000000010001110000011 i
b00000000000000000000000000011100 j
b00111 k
b00000000000000000000000000011100 x
b00000000000000000000000000011000 }
0~
b00000000000000000000000000010100 %!
1'!
b00000000000000000000000000001000 (!
b10000000000000000000000000000000 )!
1+!
1,!
1.!
0/!
b00000000001100111000100001100011 0!
b00000001110000000010001110000011 1!
b00000000000000000000000000000100 3!
b00000000000000000000000000100000 4!
b00000000000000000000000000011000 5!
b00000000000000000000000000010100 6!
b10000000000000000000000000000000 8!
b00000000000000000000000000000000 <!
b00000000000000000000000000011100 =!
#97
#98
#99
#100
#101
#102
b10000000000000000000000000000000 4
0,!
b00000000000000000000000000000000 2!
#103
b00000000000000000000000000000000 ;!
#104
#105
#106
#107
#108
b00000000000000000000000000011100 %
b00000000000000000000000000011100 )
b11100 .
b00000000000000000000000000100100 /
b00000000000000000000000000011100 R
b00000000000000000000000000000000 S
0T
b11100 V
b00100 W
b00111 \
b00011 ]
b00111 ^
b00001 _
1a
1c
b00000000001100111000100001100011 i
b00000000000000000000000000010000 j
b10000 k
b010 l
b000 m
b100 n
b00 p
0s
0t
b1100011 v
b00000000000000000000000000100000 x
b00000000000000000000000000011100 }
b00000000000000000000000000011000 %!
0'!
b00000000000000000000000000000100 (!
b00000000000000000000000000000000 )!
0+!
1,!
0.!
b01010101010101010101000010110111 0!
b00000000001100111000100001100011 1!
b00000000000000000000000000100100 4!
b00000000000000000000000000011100 5!
b00000000000000000000000000011000 6!
b00000000000000000000000000000000 8!
b00000000000000000000000000100000 =!
#109
#110
#111
#112
#113
#114
0,!
#115
#116
#117
#118
#119
#120
b00000000000000000000000000000000 %
b10000000000000000000000000000000 )
b01111111111111111111111111111111 *
1-
b00000 .
b00000000000000000000000000101000 /
b00000000000000000000000000010000 R
1T
b00111 U
b00011 V
b00001 W
1Z
b01010 \
b10101 ]
b10000 ^
b00111 _
0`
0b
b00000000000000000000000000011100 f
b010 g
b01010101010101010101000010110111 i
b01010101010101010101000000000000 j
b00001 k
b000 l
b000 n
b10 o
b01 p
1s
b0110111 v
b00000000000000000000000000100100 x
b00000000000000000000000000100000 }
b000 !!
b00 $!
b00000000000000000000000000011100 %!
b100 &!
1+!
1,!
b00000000011100001010000010110011 0!
b01010101010101010101000010110111 1!
b00000000000000000000000000011100 3!
b00000000000000000000000000101000 4!
b00000000000000000000000000100000 5!
b00000000000000000000000000011100 6!
b10000000000000000000000000000000 :!
b10000000000000000000000000000000 <!
b00000000000000000000000000100100 =!
#121
#122
#123
#124
#125
#126
0,!
#127
#128
#129
#130
#131
